언어심리학을 위한 데이터 사이언스 13주차: 문자열 #1
…
## [1] 1 3 1

# 단어당 평균 몇 개의 모음이 포함되어 있는지 알고자 할 경우.
mean(str_count(words, "[aeiou]"))

## [1] 1.991837

# 단어의 모음 수 및 자음 수를 나타내는 칼럼 생성하기.
df %>% 
  mutate(vowels = str_count(word, "[aeiou]"),
         consonants = str_count(word, "[^aeiou]"))

## # A tibble: 980 x 4
##    word         i vowels consonants
##    <chr>    <int>  <int>      <int>
##  1 a            1      1          0
##  2 able         2      2          2
##  3 about        3      3          2
##  4 absolute     4      4          4
##  5 accept       5      2          4
##  6 account      6      3          4
##  7 achieve      7      4          3
##  8 across       8      2          4
##  9 act          9      1          2
## 10 active      10      3          3
## # ... with 970 more rows
…
tidyr 패키지가 제공하는 str_match()와
비슷한 기능의 함수로 티블에서 작동함.

remove 논항: remove = TRUE이면 입력 칼럼을
출력에서 제거하고, remove = FALSE이면 입력 칼럼을 그대로
유지함.

# remove = FALSE인 경우.
tibble(sentence = sentences) %>% 
  tidyr::extract(
    sentence, c("article", "noun"), "(a|the) ([^ ]+)",  # ([^ ]+)는 공백이 아닌 문자열 의미. (\\S+)와 같음.
    remove = FALSE)

## # A tibble: 720 x 3
##    sentence                                    article noun   
##    <chr>                                       <chr>   <chr>  
##  1 The birch canoe slid on the smooth planks.  the     smooth 
##  2 Glue the sheet to the dark blue background. the     sheet  
##  3 It's easy to tell the depth of a well.      the     depth  
##  4 These days a chicken leg is a rare dish.    a       chicken
##  5 Rice is often served in round bowls.        <NA>    <NA>   
##  6 The juice of lemons makes fine punch.       <NA>    <NA>   
##  7 The box was thrown beside the parked truck. the     parked 
##  8 The hogs were fed chopped corn and garbage. <NA>    <NA>   
##  9 Four hours of steady work faced us.         <NA>    <NA>   
## 10 Large size in stockings is hard to sell.    <NA>    <NA>   
## # ... with 710 more rows

# remove = TRUE인 경우.
tibble(sentence = sentences) %>% 
  tidyr::extract(
    sentence, c("article", "noun"), "(a|the) ([^ ]+)", 
    remove = TRUE)

## # A tibble: 720 x 2
##    article noun   
##    <chr>   <chr>  
##  1 the     smooth 
##  2 the     sheet  
##  3 the     depth  
##  4 a       chicken
##  5 <NA>    <NA>   
##  6 <NA>    <NA>   
##  7 the     parked 
##  8 <NA>    <NA>   
##  9 <NA>    <NA>   
## 10 <NA>    <NA>   
## # ... with 710 more rows
…
