언어심리학을 위한 데이터 사이언스 7주차: 데이터 사이언스 #3-4 (데이터 분석)
…
설명: 관찰값을 제곱근 또는 세제곱근으로 변형하기.

용례: 정적 편포일 경우, 비교대상 자료 간 분산이 동일하지 않을
경우.

# 데이터를 제곱근으로 변형하기.
festival.2 <- festival.1 %>%
  mutate(hygiene_score_sqrt = sqrt(hygiene_score))

# 데이터를 세제곱근으로 변형하기.
festival.1 %>%
  mutate(hygiene_score_cuberoot = sign(hygiene_score) * abs(hygiene_score)^(1/3))

## # A tibble: 2,430 x 5
##    ticknumb gender day   hygiene_score hygiene_score_cuberoot
##       <dbl> <chr>  <chr>         <dbl>                  <dbl>
##  1     2111 Male   day1           2.64                  1.38 
##  2     2111 Male   day2           1.35                  1.11 
##  3     2111 Male   day3           1.61                  1.17 
##  4     2229 Female day1           0.97                  0.990
##  5     2229 Female day2           1.41                  1.12 
##  6     2229 Female day3           0.29                  0.662
##  7     2338 Male   day1           0.84                  0.944
##  8     2338 Male   day2          NA                    NA    
##  9     2338 Male   day3          NA                    NA    
## 10     2384 Female day1           3.03                  1.45 
## # ... with 2,420 more rows
…
# Cook의 거리를 바탕으로 극단값 파악하기(1 이상인 값 찾기).
album_full_rsd %>% 
  arrange(desc(.cooksd)) %>%
  dplyr::select(case_no, .cooksd)

## # A tibble: 200 x 2
##    case_no .cooksd
##      <int>   <dbl>
##  1     164  0.0708
##  2       1  0.0587
##  3     169  0.0509
##  4      55  0.0404
##  5      52  0.0332
##  6     100  0.0314
##  7     119  0.0308
##  8      99  0.0281
##  9     200  0.0251
## 10      47  0.0241
## # ... with 190 more rows
…
