언어심리학을 위한 데이터 사이언스 4주차: 데이터 사이언스 #2
…
E. html_table

기능: HTML 테이블을 데이터 프레임으로 변환해줌.

# 예시 1: tab의 첫 번째 테이블을 데이터 프레임으로 변환하기.
tab.1 <- tab[[1]] %>% 
  html_table %>%
  setNames(c("state", "population", "total", "murder_rate")) # 데이터 프레임의 열 제목 설정하기.
tab.1

## # A tibble: 51 x 4
##    state                population total murder_rate
##    <chr>                <chr>      <chr>       <dbl>
##  1 Alabama              4,853,875  348           7.2
##  2 Alaska               737,709    59            8  
##  3 Arizona              6,817,565  309           4.5
##  4 Arkansas             2,977,853  181           6.1
##  5 California           38,993,940 1,861         4.8
##  6 Colorado             5,448,819  176           3.2
##  7 Connecticut          3,584,730  117           3.3
##  8 Delaware             944,076    63            6.7
##  9 District of Columbia 670,377    162          24.2
## 10 Florida              20,244,914 1,041         5.1
## # ... with 41 more rows

class(tab.1) # 클래스 확인하기.

## [1] "tbl_df"     "tbl"        "data.frame"

# 예시 2: 레고무비
url.1 <- "https://en.wikipedia.org/w/index.php?title=The_Lego_Movie&oldid=998422565"
html <- read_html(url.1)
html %>% 
  html_element(".tracklist") %>% 
  html_table() %>%
  setNames(c("No", "Title", "Performers", "Length"))

## # A tibble: 29 x 4
##    No    Title                       Performers                           Length
##    <chr> <chr>                       <chr>                                <chr> 
##  1 1.    "\"Everything Is Awesome\"" "Tegan and Sara featuring The Lonel~ 2:43  
##  2 2.    "\"Prologue\""              ""                                   2:28  
##  3 3.    "\"Emmett's Morning\""      ""                                   2:00  
##  4 4.    "\"Emmett Falls in Love\""  ""                                   1:11  
##  5 5.    "\"Escape\""                ""                                   3:26  
##  6 6.    "\"Into the Old West\""     ""                                   1:00  
##  7 7.    "\"Wyldstyle Explains\""    ""                                   1:21  
##  8 8.    "\"Emmett's Mind\""         ""                                   2:17  
##  9 9.    "\"The Transformation\""    ""                                   1:46  
## 10 10.   "\"Saloons and Wagons\""    ""                                   3:38  
## # ... with 19 more rows
…
## 
## 다음의 패키지를 부착합니다: 'jsonlite'

## The following object is masked from 'package:purrr':
## 
##     flatten

# 연습 1: json 파일 데이터 프레임으로 불러들이기.
posts <- fromJSON("posts.json", simplifyDataFrame =T) %>%
  as_tibble() # 리스트 형식이 아닌 경우.
posts

## # A tibble: 100 x 4
##    userId    id title                                                      body 
##     <int> <int> <chr>                                                      <chr>
##  1      1     1 sunt aut facere repellat provident occaecati excepturi op~ "qui~
##  2      1     2 qui est esse                                               "est~
##  3      1     3 ea molestias quasi exercitationem repellat qui ipsa sit a~ "et ~
##  4      1     4 eum et est occaecati                                       "ull~
##  5      1     5 nesciunt quas odio                                         "rep~
##  6      1     6 dolorem eum magni eos aperiam quia                         "ut ~
##  7      1     7 magnam facilis autem                                       "dol~
##  8      1     8 dolorem dolore est ipsam                                   "dig~
##  9      1     9 nesciunt iure omnis dolorem tempora et accusantium         "con~
## 10      1    10 optio molestias id quia eum                                "quo~
## # ... with 90 more rows
…
(1) 티블

1) 티블 생성하기

A. as_tibble

티블: 데이터 프레임과 유사하나, tidyverse 패키지에 특화된 데이터
유형. tidyverse 환경 내에서는 티블 사용을 권장!

기능: 데이터 프레임을 티블로 변환해줌.

iris.1 <- as_tibble(iris)
iris.1

## # A tibble: 150 x 5
##    Sepal.Length Sepal.Width Petal.Length Petal.Width Species
##           <dbl>       <dbl>        <dbl>       <dbl> <fct>  
##  1          5.1         3.5          1.4         0.2 setosa 
##  2          4.9         3            1.4         0.2 setosa 
##  3          4.7         3.2          1.3         0.2 setosa 
##  4          4.6         3.1          1.5         0.2 setosa 
##  5          5           3.6          1.4         0.2 setosa 
##  6          5.4         3.9          1.7         0.4 setosa 
##  7          4.6         3.4          1.4         0.3 setosa 
##  8          5           3.4          1.5         0.2 setosa 
##  9          4.4         2.9          1.4         0.2 setosa 
## 10          4.9         3.1          1.5         0.1 setosa 
## # ... with 140 more rows
…
options(tibble.width = Inf): 모든 열 다 보여주기.

# 티블 생성 예시.
tibble.1 <- tibble(
  a = lubridate::now() + runif(1000) * 86400,
  b = lubridate::today() + runif(1000) * 30,
  c = 1:1000,
  d = runif(1000),
  e = sample(letters, 1000, replace = TRUE)
)
# 티블 printing 옵션
options(tibble.width = Inf)
tibble.1

## # A tibble: 1,000 x 5
##    a                   b              c      d e    
##    <dttm>              <date>     <int>  <dbl> <chr>
##  1 2022-04-05 16:34:45 2022-04-29     1 0.340  y    
##  2 2022-04-05 13:30:37 2022-04-15     2 0.937  v    
##  3 2022-04-05 16:12:54 2022-04-29     3 0.602  p    
##  4 2022-04-04 22:51:16 2022-04-20     4 0.243  s    
##  5 2022-04-05 14:32:43 2022-05-01     5 0.515  y    
##  6 2022-04-05 15:13:15 2022-04-16     6 0.0659 l    
##  7 2022-04-05 08:23:59 2022-04-20     7 0.143  t    
##  8 2022-04-04 21:05:35 2022-04-13     8 0.401  b    
##  9 2022-04-05 04:36:33 2022-04-28     9 0.908  c    
## 10 2022-04-05 09:00:05 2022-04-19    10 0.0765 q    
## # ... with 990 more rows
…
# 한국어 csv 파일은 인코딩이 형식이 utf-8이 아닌 euc-kr인 경우가 많음. 따라서 파일을 읽어들일 때의 인코딩 방식을 euc-kr 또는 cp949으로 지정해주어야 함.
x <- read_csv("texts/세종 말뭉치 샘플_csv_2주차 (22-03-14).csv", col_names = T, locale = locale(encoding='euc-kr'))

## 
## -- Column specification --------------------------------------------------------
## cols(
##   row_number = col_character(),
##   raw_ej = col_character(),
##   tagged_ej = col_character()
## )

x

## # A tibble: 246 x 3
##    row_number        raw_ej   tagged_ej                       
##    <chr>             <chr>    <chr>                           
##  1 9BTGO0345-0000060 신년     신년/NNG                        
##  2 9BTGO0345-0000070 기분을   기분/NNG + 을/JKO               
##  3 9BTGO0345-0000080 돋우는   돋우/VV + 는/ETM                
##  4 9BTGO0345-0000090 것은     것/NNB + 은/JX                  
##  5 9BTGO0345-0000100 아무래도 아무래도/MAG                    
##  6 9BTGO0345-0000110 캘린더가 캘린더/NNG + 가/JKS             
##  7 9BTGO0345-0000120 제일일   제/XPN + 일/NR + 이/VCP + ㄹ/ETM
##  8 9BTGO0345-0000130 것       것/NNB                          
##  9 9BTGO0345-0000140 같다.    같/VA + 다/EF + ./SF            
## 10 9BTGO0345-0000150 누렇게   누렇/VA + 게/EC                 
## # ... with 236 more rows
…
# R 기본 내장함수로 불러들이기.
y.base <- read.delim("texts/세종 말뭉치 샘플_txt_2주차 (22-03-14).txt", header = T, sep = "\t", fileEncoding = "utf-8")

3) read_excel

기능: readxl 패키지로 엑셀 파일 티블 형식으로
불러오기.

library(readxl)
z <- read_excel("texts/세종 말뭉치 샘플_xlsx_2주차 (22-03-14).xlsx", sheet = 1)
z

## # A tibble: 246 x 3
##    row_number        raw_ej   tagged_ej                       
##    <chr>             <chr>    <chr>                           
##  1 9BTGO0345-0000060 신년     신년/NNG                        
##  2 9BTGO0345-0000070 기분을   기분/NNG + 을/JKO               
##  3 9BTGO0345-0000080 돋우는   돋우/VV + 는/ETM                
##  4 9BTGO0345-0000090 것은     것/NNB + 은/JX                  
##  5 9BTGO0345-0000100 아무래도 아무래도/MAG                    
##  6 9BTGO0345-0000110 캘린더가 캘린더/NNG + 가/JKS             
##  7 9BTGO0345-0000120 제일일   제/XPN + 일/NR + 이/VCP + ㄹ/ETM
##  8 9BTGO0345-0000130 것       것/NNB                          
##  9 9BTGO0345-0000140 같다.    같/VA + 다/EF + ./SF            
## 10 9BTGO0345-0000150 누렇게   누렇/VA + 게/EC                 
## # ... with 236 more rows
…
problems(): 대단위 데이터 파일의 경우, 첫 1000행을 통해
각 열의 유형을 추측했을 때 추측된 유형으로 parsing되지 않는 열들이 있을
수 있음. 이럴 때는 어디서 parsing 실패가 일어났는지 살펴보기 위해
problems() 함수를 사용할 수 있음.

# challenge 데이터 프레임의 parsing 문제 진단하기.
problems(challenge)

## # A tibble: 1,000 x 5
##      row col   expected           actual    
##    <int> <chr> <chr>              <chr>     
##  1  1001 y     1/0/T/F/TRUE/FALSE 2015-01-16
##  2  1002 y     1/0/T/F/TRUE/FALSE 2018-05-18
##  3  1003 y     1/0/T/F/TRUE/FALSE 2015-09-05
##  4  1004 y     1/0/T/F/TRUE/FALSE 2012-11-28
##  5  1005 y     1/0/T/F/TRUE/FALSE 2020-01-13
##  6  1006 y     1/0/T/F/TRUE/FALSE 2016-04-17
##  7  1007 y     1/0/T/F/TRUE/FALSE 2011-05-14
##  8  1008 y     1/0/T/F/TRUE/FALSE 2020-07-18
##  9  1009 y     1/0/T/F/TRUE/FALSE 2011-04-30
## 10  1010 y     1/0/T/F/TRUE/FALSE 2010-05-11
##    file                                                                    
##    <chr>                                                                   
##  1 'C:/Users/forsy/Documents/R/win-library/4.3/readr/extdata/challenge.csv'
##  2 'C:/Users/forsy/Documents/R/win-library/4.3/readr/extdata/challenge.csv'
##  3 'C:/Users/forsy/Documents/R/win-library/4.3/readr/extdata/challenge.csv'
##  4 'C:/Users/forsy/Documents/R/win-library/4.3/readr/extdata/challenge.csv'
##  5 'C:/Users/forsy/Documents/R/win-library/4.3/readr/extdata/challenge.csv'
##  6 'C:/Users/forsy/Documents/R/win-library/4.3/readr/extdata/challenge.csv'
##  7 'C:/Users/forsy/Documents/R/win-library/4.3/readr/extdata/challenge.csv'
##  8 'C:/Users/forsy/Documents/R/win-library/4.3/readr/extdata/challenge.csv'
##  9 'C:/Users/forsy/Documents/R/win-library/4.3/readr/extdata/challenge.csv'
## 10 'C:/Users/forsy/Documents/R/win-library/4.3/readr/extdata/challenge.csv'
## # ... with 990 more rows
…
모든 열을 문자 벡터로 parsing한 뒤 parsing 수정하기

단계 1: 모든 열을 아예 문자 벡터로 parsing하도록 명령하기.

단계 2: type_convert() 함수를 통해 해당 객체의 열을
다시 parsing하기.

# 모든 열의 디폴트 parsing을 "문자 벡터"로 설정.
challenge3 <- read_csv(readr_example("challenge.csv"), 
                       col_types = cols(.default = col_character()))
challenge3

## # A tibble: 2,000 x 2
##    x     y    
##    <chr> <chr>
##  1 404   <NA> 
##  2 4172  <NA> 
##  3 3004  <NA> 
##  4 787   <NA> 
##  5 37    <NA> 
##  6 2332  <NA> 
##  7 2489  <NA> 
##  8 1449  <NA> 
##  9 3665  <NA> 
## 10 3863  <NA> 
## # ... with 1,990 more rows

type_convert(challenge3)

## 
## -- Column specification --------------------------------------------------------
## cols(
##   x = col_double(),
##   y = col_date(format = "")
## )

## # A tibble: 2,000 x 2
##        x y     
##    <dbl> <date>
##  1   404 NA    
##  2  4172 NA    
##  3  3004 NA    
##  4   787 NA    
##  5    37 NA    
##  6  2332 NA    
##  7  2489 NA    
##  8  1449 NA    
##  9  3665 NA    
## 10  3863 NA    
## # ... with 1,990 more rows
…
저장된 파일 재parsing 없이 다시 불러들이기

write_rds() -> read_rds()

write_feather() -> read_feather()

# write_rds()로 반출한 뒤 read_rds()로 반입하기.
write_rds(challenge2, "challenge2.rds")
read_rds("challenge2.rds")

## # A tibble: 2,000 x 2
##        x y     
##    <dbl> <date>
##  1   404 NA    
##  2  4172 NA    
##  3  3004 NA    
##  4   787 NA    
##  5    37 NA    
##  6  2332 NA    
##  7  2489 NA    
##  8  1449 NA    
##  9  3665 NA    
## 10  3863 NA    
## # ... with 1,990 more rows

library(feather)
# write_feather()로 반출한 뒤 read_feather()로 반입하기.
write_feather(challenge2, "challenge2.feather")
read_feather("challenge2.feather")

## # A tibble: 2,000 x 2
##        x y     
##    <dbl> <date>
##  1   404 NA    
##  2  4172 NA    
##  3  3004 NA    
##  4   787 NA    
##  5    37 NA    
##  6  2332 NA    
##  7  2489 NA    
##  8  1449 NA    
##  9  3665 NA    
## 10  3863 NA    
## # ... with 1,990 more rows
…
# 공항정보(공항 코드 `faa`).
airports

## # A tibble: 1,458 x 8
##    faa   name                             lat    lon   alt    tz dst  
##    <chr> <chr>                          <dbl>  <dbl> <dbl> <dbl> <chr>
##  1 04G   Lansdowne Airport               41.1  -80.6  1044    -5 A    
##  2 06A   Moton Field Municipal Airport   32.5  -85.7   264    -6 A    
##  3 06C   Schaumburg Regional             42.0  -88.1   801    -6 A    
##  4 06N   Randall Airport                 41.4  -74.4   523    -5 A    
##  5 09J   Jekyll Island Airport           31.1  -81.4    11    -5 A    
##  6 0A9   Elizabethton Municipal Airport  36.4  -82.2  1593    -5 A    
##  7 0G6   Williams County Airport         41.5  -84.5   730    -5 A    
##  8 0G7   Finger Lakes Regional Airport   42.9  -76.8   492    -5 A    
##  9 0P2   Shoestring Aviation Airfield    39.8  -76.6  1000    -5 U    
## 10 0S9   Jefferson County Intl           48.1 -123.    108    -8 A    
##    tzone              
##    <chr>              
##  1 America/New_York   
##  2 America/Chicago    
##  3 America/Chicago    
##  4 America/New_York   
##  5 America/New_York   
##  6 America/New_York   
##  7 America/New_York   
##  8 America/New_York   
##  9 America/New_York   
## 10 America/Los_Angeles
## # ... with 1,448 more rows

# 항공기 정보(`tailnum`).
planes 

## # A tibble: 3,322 x 9
##    tailnum  year type                    manufacturer     model     engines
##    <chr>   <int> <chr>                   <chr>            <chr>       <int>
##  1 N10156   2004 Fixed wing multi engine EMBRAER          EMB-145XR       2
##  2 N102UW   1998 Fixed wing multi engine AIRBUS INDUSTRIE A320-214        2
##  3 N103US   1999 Fixed wing multi engine AIRBUS INDUSTRIE A320-214        2
##  4 N104UW   1999 Fixed wing multi engine AIRBUS INDUSTRIE A320-214        2
##  5 N10575   2002 Fixed wing multi engine EMBRAER          EMB-145LR       2
##  6 N105UW   1999 Fixed wing multi engine AIRBUS INDUSTRIE A320-214        2
##  7 N107US   1999 Fixed wing multi engine AIRBUS INDUSTRIE A320-214        2
##  8 N108UW   1999 Fixed wing multi engine AIRBUS INDUSTRIE A320-214        2
##  9 N109UW   1999 Fixed wing multi engine AIRBUS INDUSTRIE A320-214        2
## 10 N110UW   1999 Fixed wing multi engine AIRBUS INDUSTRIE A320-214        2
##    seats speed engine   
##    <int> <int> <chr>    
##  1    55    NA Turbo-fan
##  2   182    NA Turbo-fan
##  3   182    NA Turbo-fan
##  4   182    NA Turbo-fan
##  5    55    NA Turbo-fan
##  6   182    NA Turbo-fan
##  7   182    NA Turbo-fan
##  8   182    NA Turbo-fan
##  9   182    NA Turbo-fan
## 10   182    NA Turbo-fan
## # ... with 3,312 more rows

# NYC 공항의 시간별 날씨.
weather

## # A tibble: 26,115 x 15
##    origin  year month   day  hour  temp  dewp humid wind_dir wind_speed
##    <chr>  <int> <int> <int> <int> <dbl> <dbl> <dbl>    <dbl>      <dbl>
##  1 EWR     2013     1     1     1  39.0  26.1  59.4      270      10.4 
##  2 EWR     2013     1     1     2  39.0  27.0  61.6      250       8.06
##  3 EWR     2013     1     1     3  39.0  28.0  64.4      240      11.5 
##  4 EWR     2013     1     1     4  39.9  28.0  62.2      250      12.7 
##  5 EWR     2013     1     1     5  39.0  28.0  64.4      260      12.7 
##  6 EWR     2013     1     1     6  37.9  28.0  67.2      240      11.5 
##  7 EWR     2013     1     1     7  39.0  28.0  64.4      240      15.0 
##  8 EWR     2013     1     1     8  39.9  28.0  62.2      250      10.4 
##  9 EWR     2013     1     1     9  39.9  28.0  62.2      260      15.0 
## 10 EWR     2013     1     1    10  41    28.0  59.6      260      13.8 
##    wind_gust precip pressure visib time_hour          
##        <dbl>  <dbl>    <dbl> <dbl> <dttm>             
##  1        NA      0    1012     10 2013-01-01 01:00:00
##  2        NA      0    1012.    10 2013-01-01 02:00:00
##  3        NA      0    1012.    10 2013-01-01 03:00:00
##  4        NA      0    1012.    10 2013-01-01 04:00:00
##  5        NA      0    1012.    10 2013-01-01 05:00:00
##  6        NA      0    1012.    10 2013-01-01 06:00:00
##  7        NA      0    1012.    10 2013-01-01 07:00:00
##  8        NA      0    1012.    10 2013-01-01 08:00:00
##  9        NA      0    1013.    10 2013-01-01 09:00:00
## 10        NA      0    1012.    10 2013-01-01 10:00:00
## # ... with 26,105 more rows
…
## # A tibble: 3 x 6
##    year month   day  hour origin     n
##   <int> <int> <int> <int> <chr>  <int>
## 1  2013    11     3     1 EWR        2
## 2  2013    11     3     1 JFK        2
## 3  2013    11     3     1 LGA        2

# flights는 핵심 키가 따로 없음. 시간+비행 조합 살펴보기.
flights %>% 
  count(year, month, day, flight) %>% 
  filter(n > 1)

## # A tibble: 29,768 x 5
##     year month   day flight     n
##    <int> <int> <int>  <int> <int>
##  1  2013     1     1      1     2
##  2  2013     1     1      3     2
##  3  2013     1     1      4     2
##  4  2013     1     1     11     3
##  5  2013     1     1     15     2
##  6  2013     1     1     21     2
##  7  2013     1     1     27     4
##  8  2013     1     1     31     2
##  9  2013     1     1     32     2
## 10  2013     1     1     35     2
## # ... with 29,758 more rows

# flights는 핵심 키가 따로 없음. 시간+tailnum 조합 살펴보기.
flights %>% 
  count(year, month, day, tailnum) %>% 
  filter(n > 1)

## # A tibble: 64,928 x 5
##     year month   day tailnum     n
##    <int> <int> <int> <chr>   <int>
##  1  2013     1     1 N0EGMQ      2
##  2  2013     1     1 N11189      2
##  3  2013     1     1 N11536      2
##  4  2013     1     1 N11544      3
##  5  2013     1     1 N11551      2
##  6  2013     1     1 N12540      2
##  7  2013     1     1 N12567      2
##  8  2013     1     1 N13123      2
##  9  2013     1     1 N13538      3
## 10  2013     1     1 N13566      3
## # ... with 64,918 more rows
…
# flights2에서 특정 열만 subsetting하기.
flights2 <- flights %>% 
  select(year:day, hour, origin, dest, tailnum, carrier)

# left_join으로 flights2와 weather 테이블 연결하기.
flights2 %>% 
  left_join(weather)

## Joining, by = c("year", "month", "day", "hour", "origin")

## # A tibble: 336,776 x 18
##     year month   day  hour origin dest  tailnum carrier  temp  dewp humid
##    <int> <int> <int> <dbl> <chr>  <chr> <chr>   <chr>   <dbl> <dbl> <dbl>
##  1  2013     1     1     5 EWR    IAH   N14228  UA       39.0  28.0  64.4
##  2  2013     1     1     5 LGA    IAH   N24211  UA       39.9  25.0  54.8
##  3  2013     1     1     5 JFK    MIA   N619AA  AA       39.0  27.0  61.6
##  4  2013     1     1     5 JFK    BQN   N804JB  B6       39.0  27.0  61.6
##  5  2013     1     1     6 LGA    ATL   N668DN  DL       39.9  25.0  54.8
##  6  2013     1     1     5 EWR    ORD   N39463  UA       39.0  28.0  64.4
##  7  2013     1     1     6 EWR    FLL   N516JB  B6       37.9  28.0  67.2
##  8  2013     1     1     6 LGA    IAD   N829AS  EV       39.9  25.0  54.8
##  9  2013     1     1     6 JFK    MCO   N593JB  B6       37.9  27.0  64.3
## 10  2013     1     1     6 LGA    ORD   N3ALAA  AA       39.9  25.0  54.8
##    wind_dir wind_speed wind_gust precip pressure visib time_hour          
##       <dbl>      <dbl>     <dbl>  <dbl>    <dbl> <dbl> <dttm>             
##  1      260       12.7      NA        0    1012.    10 2013-01-01 05:00:00
##  2      250       15.0      21.9      0    1011.    10 2013-01-01 05:00:00
##  3      260       15.0      NA        0    1012.    10 2013-01-01 05:00:00
##  4      260       15.0      NA        0    1012.    10 2013-01-01 05:00:00
##  5      260       16.1      23.0      0    1012.    10 2013-01-01 06:00:00
##  6      260       12.7      NA        0    1012.    10 2013-01-01 05:00:00
##  7      240       11.5      NA        0    1012.    10 2013-01-01 06:00:00
##  8      260       16.1      23.0      0    1012.    10 2013-01-01 06:00:00
##  9      260       13.8      NA        0    1013.    10 2013-01-01 06:00:00
## 10      260       16.1      23.0      0    1012.    10 2013-01-01 06:00:00
## # ... with 336,766 more rows
…
